<?xml version="1.0" encoding="UTF-8"?>
<glyph name="Emasc" format="2">
	<advance width="626"/>
	<unicode hex="F8310"/>
	<outline>
		<component base="circumflexbelowcomb.case" xOffset="181"/>
		<component base="E"/>
	</outline>
</glyph>
