<?xml version="1.0" encoding="UTF-8"?>
<glyph name="eacute" format="2">
	<advance width="441"/>
	<unicode hex="00E9"/>
	<outline>
		<component base="e"/>
		<component base="acutecomb" xOffset="151"/>
	</outline>
</glyph>
