<?xml version="1.0" encoding="UTF-8"?>
<glyph name="euro" format="2">
	<advance width="621"/>
	<unicode hex="20AC"/>
	<outline>
		<contour>
			<point x="395" y="-14" type="curve" smooth="yes"/>
			<point x="462" y="-14"/>
			<point x="530" y="12"/>
			<point x="579" y="44" type="curve"/>
			<point x="596" y="215" type="line"/>
			<point x="571" y="219" type="line"/>
			<point x="539" y="111"/>
			<point x="493" y="40"/>
			<point x="428" y="40" type="curve" smooth="yes"/>
			<point x="312" y="40"/>
			<point x="215" y="177"/>
			<point x="215" y="372" type="curve" smooth="yes"/>
			<point x="215" y="523"/>
			<point x="271" y="659"/>
			<point x="370" y="659" type="curve" smooth="yes"/>
			<point x="454" y="659"/>
			<point x="517" y="601"/>
			<point x="568" y="484" type="curve"/>
			<point x="591" y="492" type="line"/>
			<point x="574" y="668" type="line"/>
			<point x="525" y="697"/>
			<point x="456" y="714"/>
			<point x="399" y="714" type="curve" smooth="yes"/>
			<point x="230" y="714"/>
			<point x="104" y="548"/>
			<point x="104" y="349" type="curve" smooth="yes"/>
			<point x="104" y="150"/>
			<point x="233" y="-14"/>
		</contour>
		<contour>
			<point x="34" y="450" type="line"/>
			<point x="20" y="400" type="line"/>
			<point x="506" y="400" type="line"/>
			<point x="520" y="450" type="line"/>
		</contour>
		<contour>
			<point x="34" y="312" type="line"/>
			<point x="20" y="262" type="line"/>
			<point x="476" y="262" type="line"/>
			<point x="490" y="312" type="line"/>
		</contour>
	</outline>
	<lib>
		<dict>
			<key>com.schriftgestaltung.Glyphs.rightMetricsKey</key>
			<string>C</string>
		</dict>
	</lib>
</glyph>
