<?xml version="1.0" encoding="UTF-8"?>
<glyph name="northEastArrow" format="2">
	<advance width="782"/>
	<unicode hex="2197"/>
	<outline>
		<component base="rightArrow" xScale="0.7071" xyScale="0.7071" yScale="0.7071" yxScale="-0.7071" xOffset="247" yOffset="-136"/>
	</outline>
</glyph>
