<?xml version="1.0" encoding="UTF-8"?>
<glyph name="y" format="2">
	<advance width="497"/>
	<unicode hex="0079"/>
	<anchor x="266" y="470" name="top"/>
	<note>
		y
	</note>
	<outline>
		<contour>
			<point x="-15" y="-245" type="line"/>
			<point x="14" y="-254"/>
			<point x="40" y="-259"/>
			<point x="63" y="-259" type="curve" smooth="yes"/>
			<point x="134" y="-259"/>
			<point x="180" y="-218"/>
			<point x="206" y="-157" type="curve" smooth="yes"/>
			<point x="437" y="373" type="line" smooth="yes"/>
			<point x="460" y="425"/>
			<point x="485" y="440"/>
			<point x="507" y="443" type="curve"/>
			<point x="507" y="470" type="line"/>
			<point x="309" y="470" type="line"/>
			<point x="309" y="443" type="line"/>
			<point x="355" y="442"/>
			<point x="408" y="432"/>
			<point x="377" y="359" type="curve" smooth="yes"/>
			<point x="177" y="-113" type="line" smooth="yes"/>
			<point x="161" y="-150"/>
			<point x="136" y="-171"/>
			<point x="98" y="-171" type="curve" smooth="yes"/>
			<point x="76" y="-171"/>
			<point x="48" y="-162"/>
			<point x="16" y="-140" type="curve"/>
		</contour>
		<contour>
			<point x="245" y="-17" type="line"/>
			<point x="291" y="96" type="line"/>
			<point x="176" y="361" type="line" smooth="yes"/>
			<point x="148" y="425"/>
			<point x="197" y="442"/>
			<point x="235" y="443" type="curve"/>
			<point x="235" y="470" type="line"/>
			<point x="-6" y="470" type="line"/>
			<point x="-6" y="443" type="line"/>
			<point x="29" y="439"/>
			<point x="50" y="420"/>
			<point x="74" y="366" type="curve" smooth="yes"/>
		</contour>
	</outline>
	<lib>
		<dict>
			<key>com.schriftgestaltung.Glyphs.rightMetricsKey</key>
			<string>v</string>
		</dict>
	</lib>
</glyph>
