<?xml version="1.0" encoding="UTF-8"?>
<glyph name="A_O" format="2">
	<advance width="1106"/>
	<unicode hex="F1030"/>
	<outline>
		<contour>
			<point x="-35" y="0" type="line"/>
			<point x="214" y="0" type="line"/>
			<point x="214" y="29" type="line"/>
			<point x="137" y="41"/>
			<point x="108" y="76"/>
			<point x="132" y="140" type="curve" smooth="yes"/>
			<point x="292" y="574" type="line"/>
			<point x="253" y="575" type="line"/>
			<point x="376" y="235" type="line"/>
			<point x="534" y="246" type="line"/>
			<point x="364" y="700" type="line"/>
			<point x="279" y="700" type="line"/>
			<point x="56" y="129" type="line" smooth="yes"/>
			<point x="35" y="76"/>
			<point x="12" y="42"/>
			<point x="-35" y="29" type="curve"/>
		</contour>
		<contour>
			<point x="144" y="215" type="line"/>
			<point x="412" y="215" type="line"/>
			<point x="412" y="268" type="line"/>
			<point x="144" y="268" type="line"/>
		</contour>
		<component base="O" xOffset="320"/>
	</outline>
	<lib>
		<dict>
			<key>com.schriftgestaltung.Glyphs.leftMetricsKey</key>
			<string>A</string>
			<key>com.schriftgestaltung.Glyphs.rightMetricsKey</key>
			<string>O</string>
		</dict>
	</lib>
</glyph>
