<?xml version="1.0" encoding="UTF-8"?>
<glyph name="ampersand" format="2">
	<advance width="742"/>
	<unicode hex="0026"/>
	<outline>
		<contour>
			<point x="239" y="-8" type="curve" smooth="yes"/>
			<point x="350" y="-8"/>
			<point x="445" y="53"/>
			<point x="525" y="158" type="curve" smooth="yes"/>
			<point x="618" y="280" type="line" smooth="yes"/>
			<point x="652" y="325"/>
			<point x="672" y="347"/>
			<point x="720" y="369" type="curve"/>
			<point x="720" y="396" type="line"/>
			<point x="517" y="396" type="line"/>
			<point x="517" y="369" type="line"/>
			<point x="571" y="361"/>
			<point x="587" y="325"/>
			<point x="551" y="280" type="curve" smooth="yes"/>
			<point x="463" y="170" type="line" smooth="yes"/>
			<point x="423" y="120"/>
			<point x="372" y="91"/>
			<point x="317" y="91" type="curve" smooth="yes"/>
			<point x="245" y="91"/>
			<point x="173" y="142"/>
			<point x="173" y="226" type="curve" smooth="yes"/>
			<point x="173" y="278"/>
			<point x="201" y="331"/>
			<point x="271" y="363" type="curve" smooth="yes"/>
			<point x="317" y="384" type="line" smooth="yes"/>
			<point x="399" y="421"/>
			<point x="521" y="480"/>
			<point x="521" y="576" type="curve" smooth="yes"/>
			<point x="521" y="647"/>
			<point x="454" y="708"/>
			<point x="354" y="708" type="curve" smooth="yes"/>
			<point x="241" y="708"/>
			<point x="142" y="631"/>
			<point x="142" y="532" type="curve" smooth="yes"/>
			<point x="142" y="484"/>
			<point x="166" y="436"/>
			<point x="200" y="398" type="curve" smooth="yes"/>
			<point x="552" y="0" type="line"/>
			<point x="732" y="0" type="line"/>
			<point x="732" y="26" type="line"/>
			<point x="695" y="34"/>
			<point x="660" y="60"/>
			<point x="601" y="129" type="curve" smooth="yes"/>
			<point x="337" y="438" type="line" smooth="yes"/>
			<point x="303" y="478"/>
			<point x="263" y="527"/>
			<point x="263" y="579" type="curve" smooth="yes"/>
			<point x="263" y="614"/>
			<point x="281" y="661"/>
			<point x="332" y="661" type="curve" smooth="yes"/>
			<point x="374" y="661"/>
			<point x="399" y="628"/>
			<point x="399" y="581" type="curve" smooth="yes"/>
			<point x="399" y="508"/>
			<point x="340" y="443"/>
			<point x="277" y="416" type="curve" smooth="yes"/>
			<point x="235" y="398" type="line" smooth="yes"/>
			<point x="132" y="354"/>
			<point x="35" y="295"/>
			<point x="35" y="175" type="curve" smooth="yes"/>
			<point x="35" y="66"/>
			<point x="117" y="-8"/>
		</contour>
	</outline>
	<lib>
		<dict>
			<key>com.schriftgestaltung.Glyphs.leftMetricsKey</key>
			<string>O</string>
		</dict>
	</lib>
</glyph>
