<?xml version="1.0" encoding="UTF-8"?>
<glyph name="E" format="2">
	<advance width="622"/>
	<unicode hex="0045"/>
	<anchor x="329" y="0" name="bottom"/>
	<anchor x="317" y="700" name="top"/>
	<outline>
		<contour>
			<point x="98" y="49" type="line"/>
			<point x="256" y="49" type="line"/>
			<point x="256" y="700" type="line"/>
			<point x="40" y="700" type="line"/>
			<point x="40" y="675" type="line"/>
			<point x="87" y="664"/>
			<point x="98" y="645"/>
			<point x="98" y="559" type="curve" smooth="yes"/>
		</contour>
		<contour>
			<point x="40" y="0" type="line"/>
			<point x="568" y="0" type="line"/>
			<point x="592" y="182" type="line"/>
			<point x="566" y="186" type="line"/>
			<point x="535" y="114"/>
			<point x="462" y="53"/>
			<point x="370" y="53" type="curve" smooth="yes"/>
			<point x="265" y="53"/>
			<point x="256" y="95"/>
			<point x="256" y="141" type="curve"/>
			<point x="98" y="141" type="line"/>
			<point x="98" y="55"/>
			<point x="87" y="36"/>
			<point x="40" y="25" type="curve"/>
		</contour>
		<contour>
			<point x="419" y="227" type="curve"/>
			<point x="446" y="227" type="line"/>
			<point x="446" y="495" type="line"/>
			<point x="419" y="495" type="line"/>
			<point x="411" y="430"/>
			<point x="369" y="388"/>
			<point x="293" y="388" type="curve" smooth="yes"/>
			<point x="221" y="388" type="line"/>
			<point x="221" y="335" type="line"/>
			<point x="293" y="335" type="line" smooth="yes"/>
			<point x="369" y="335"/>
			<point x="411" y="294"/>
		</contour>
		<contour>
			<point x="547" y="503" type="curve"/>
			<point x="573" y="510" type="line"/>
			<point x="545" y="700" type="line"/>
			<point x="191" y="700" type="line"/>
			<point x="191" y="647" type="line"/>
			<point x="345" y="647" type="line" smooth="yes"/>
			<point x="436" y="647"/>
			<point x="499" y="594"/>
		</contour>
	</outline>
	<lib>
		<dict>
			<key>com.schriftgestaltung.Glyphs.leftMetricsKey</key>
			<string>H</string>
		</dict>
	</lib>
</glyph>
