<?xml version="1.0" encoding="UTF-8"?>
<glyph name="Eacute" format="2">
	<advance width="622"/>
	<unicode hex="00C9"/>
	<outline>
		<component base="E"/>
		<component base="acutecomb.case" xOffset="243" yOffset="150"/>
	</outline>
</glyph>
