<?xml version="1.0" encoding="UTF-8"?>
<glyph name="Imasc" format="2">
	<advance width="353"/>
	<unicode hex="F8510"/>
	<guideline x="40" y="-74" angle="270"/>
	<outline>
		<component base="I"/>
		<component base="circumflexbelowcomb.case" xOffset="43"/>
	</outline>
</glyph>
