<?xml version="1.0" encoding="UTF-8"?>
<glyph name="udieresis" format="2">
	<advance width="583"/>
	<unicode hex="00FC"/>
	<outline>
		<component base="u"/>
		<component base="dieresiscomb" xOffset="128"/>
	</outline>
</glyph>
