<?xml version="1.0" encoding="UTF-8"?>
<glyph name="Wgrave" format="2">
	<advance width="941"/>
	<unicode hex="1E80"/>
	<outline>
		<component base="W"/>
		<component base="gravecomb.case" xOffset="303" yOffset="150"/>
	</outline>
</glyph>
